// Jest Snapshot v1, https://goo.gl/fbAQLP

exports[`renders correctly 1`] = `
<DocumentFragment>
  .c0 {
  display: -webkit-box;
  display: -webkit-flex;
  display: -ms-flexbox;
  display: flex;
  -webkit-align-items: center;
  -webkit-box-align: center;
  -ms-flex-align: center;
  align-items: center;
  -webkit-box-pack: justify;
  -webkit-justify-content: space-between;
  -ms-flex-pack: justify;
  justify-content: space-between;
  width: 100%;
  padding: .18rem;
  margin: .6rem 0;
  border-bottom-style: solid;
  border-bottom: 0.063rem solid;
  border-color: #383743;
  position: relative;
}

.c0[data-error='true'] {
  border-color: #ff0f44;
}

.c0 > input::-webkit-input-placeholder {
  color: #383743;
}

.c0 > input::-moz-placeholder {
  color: #383743;
}

.c0 > input:-ms-input-placeholder {
  color: #383743;
}

.c0 > input::placeholder {
  color: #383743;
}

.c0 > input {
  color: #383743;
}

.c2 {
  padding: .18rem;
  border: none;
  font-size: 1.36rem;
  -webkit-box-flex: 1;
  -webkit-flex-grow: 1;
  -ms-flex-positive: 1;
  flex-grow: 1;
  background-color: transparent;
}

.c1 {
  padding: .18rem;
}

.c1 svg {
  height: 2rem;
  width: 2rem;
}

@media (max-width:700px) {
  .c2 {
    font-size: 1.125rem;
  }
}

@media (max-width:700px) {
  .c1 svg {
    width: 1.5rem;
    height: 1.5rem;
  }
}

<div
    class="c0"
    data-error="false"
  >
    <span
      class="c1"
    />
    <input
      class="c2"
    />
  </div>
</DocumentFragment>
`;
